<svg width="12" height="18" viewBox="0 0 12 18" fill="none" xmlns="http://www.w3.org/2000/svg">
<path d="M8.9492 16.1166C8.9492 16.3172 8.95107 16.5144 8.9492 16.712C8.945 17.0641 8.70833 17.3214 8.39091 17.3214C8.07395 17.3214 7.83588 17.0636 7.83168 16.7125C7.82981 16.5389 7.83168 16.3653 7.83168 16.1796H3.35831C3.35831 16.2638 3.35831 16.346 3.35831 16.4283C3.35831 17.0477 3.18373 17.3243 2.79488 17.3214C2.40743 17.3185 2.23985 17.0463 2.23985 16.4191C2.23985 16.3181 2.23985 16.2167 2.23985 16.1128C1.53171 15.9406 0.962214 15.5703 0.539758 14.9739C0.192457 14.4843 0.00526925 13.9337 0.00433565 13.3267C0.000601227 10.7951 -0.00359999 8.26341 0.00526925 5.73223C0.0104041 4.17881 1.2549 2.90625 2.7608 2.88941C2.95219 2.88749 3.14358 2.88941 3.35784 2.88941C3.35784 2.81439 3.35784 2.75042 3.35784 2.68694C3.35784 2.18773 3.35598 1.68851 3.35831 1.18978C3.36158 0.502042 3.84098 0.00523365 4.50431 0.00234803C5.23252 -0.000537596 5.96027 -0.00101853 6.68848 0.00234803C7.34294 0.00523365 7.82561 0.50108 7.83028 1.17535C7.83448 1.73949 7.83121 2.30315 7.83121 2.88845C8.00533 2.88845 8.16637 2.88845 8.32742 2.88845C9.9631 2.89086 11.1852 4.15332 11.1861 5.84477C11.1875 8.28601 11.1861 10.7277 11.1861 13.169C11.1861 14.6214 10.3837 15.7069 9.02529 16.0935C9.00382 16.0998 8.98281 16.1065 8.9492 16.1171V16.1166ZM10.0677 9.53452C10.0677 8.31391 10.0681 7.09377 10.0677 5.87315C10.0667 4.77854 9.35345 4.04318 8.29101 4.04318C6.49195 4.0427 4.69243 4.0427 2.89338 4.04318C1.83373 4.04318 1.12139 4.78094 1.12093 5.87748C1.12046 8.31246 1.12046 10.7474 1.12093 13.182C1.12093 14.2751 1.83653 15.0119 2.89758 15.0124C4.69663 15.0129 6.49616 15.0129 8.29521 15.0124C9.35532 15.0124 10.0667 14.2751 10.0677 13.1776C10.0686 11.9633 10.0677 10.7489 10.0677 9.53452ZM6.70295 2.8798V1.16814H4.48937V2.8798H6.70295Z" fill="#08A5E3"/>
<path d="M10.3195 9.35986C10.3195 10.5738 10.32 11.7877 10.3195 13.0017C10.319 14.0988 9.60052 14.8353 8.53053 14.8358C6.71472 14.8363 4.89843 14.8363 3.08262 14.8358C2.01169 14.8358 1.28989 14.0988 1.28942 13.006C1.28894 10.5719 1.28894 8.13776 1.28942 5.70412C1.28942 4.60797 2.00886 3.87096 3.07838 3.87048C4.89419 3.87 6.71048 3.87 8.52629 3.87048C9.59816 3.87048 10.3186 4.60557 10.3195 5.69979C10.3204 6.91998 10.3195 8.13968 10.3195 9.35986ZM2.98226 9.33486C2.98226 9.44929 2.98226 9.56323 2.98226 9.67765C2.98226 10.6214 2.98085 11.5651 2.9832 12.5089C2.98415 12.8257 3.19946 13.0719 3.48922 13.1021C3.77285 13.132 4.03952 12.9339 4.09795 12.643C4.11302 12.5675 4.11067 12.4877 4.11067 12.4098C4.11114 10.5286 4.11114 8.64689 4.11067 6.76565C4.11067 6.56709 4.11585 6.36854 4.10878 6.17046C4.09983 5.91758 3.97639 5.73585 3.74741 5.64258C3.36719 5.48681 2.98367 5.77431 2.98273 6.21565C2.98038 7.25555 2.98179 8.29545 2.98179 9.33535L2.98226 9.33486ZM5.24002 9.35313C5.24002 9.46756 5.24002 9.5815 5.24002 9.69592C5.24002 10.6334 5.2386 11.5714 5.24096 12.5089C5.2419 12.8257 5.45769 13.0719 5.74745 13.1017C6.03108 13.131 6.29775 12.9329 6.3557 12.6421C6.37078 12.5666 6.36795 12.4868 6.36842 12.4089C6.36889 10.5031 6.36889 8.59785 6.36842 6.69209C6.36842 6.51181 6.37408 6.33104 6.36607 6.15123C6.35146 5.832 6.08903 5.59018 5.78137 5.6022C5.46805 5.61422 5.24096 5.86758 5.24049 6.21517C5.2386 7.26132 5.24002 8.30699 5.24002 9.35313ZM8.62618 9.34544C8.62618 8.29929 8.62759 7.25363 8.62524 6.20748C8.62429 5.857 8.37929 5.60027 8.05844 5.6022C7.74324 5.60412 7.49871 5.85556 7.49871 6.19546C7.49683 8.29929 7.49589 10.4031 7.50201 12.507C7.50201 12.6252 7.5463 12.7579 7.60849 12.8594C7.73994 13.0733 7.99813 13.1517 8.22853 13.0762C8.47494 12.9954 8.62476 12.7853 8.62524 12.5017C8.62712 11.4498 8.62618 10.3978 8.62618 9.34592V9.34544Z" fill="white" fill-opacity="0.46"/>
<path d="M2.89121 9.5461C2.89121 8.49609 2.88941 7.44608 2.89212 6.39607C2.89302 5.95044 3.26001 5.66063 3.62385 5.81743C3.84251 5.91209 3.96109 6.09558 3.96966 6.35044C3.97642 6.55044 3.97146 6.75093 3.97146 6.95142C3.97146 8.85095 3.97146 10.751 3.97146 12.6505C3.97146 12.7291 3.97371 12.8097 3.95929 12.8859C3.90383 13.1796 3.64865 13.3796 3.37678 13.3495C3.09951 13.319 2.89347 13.0704 2.89257 12.7505C2.88986 11.7976 2.89166 10.8447 2.89166 9.89174C2.89166 9.7762 2.89166 9.66115 2.89166 9.54562L2.89121 9.5461Z" fill="#08A5E3"/>
<path d="M5.05528 9.56345C5.05528 8.5068 5.05437 7.45063 5.05573 6.39398C5.05618 6.04289 5.27352 5.78699 5.57338 5.77485C5.86783 5.76271 6.119 6.00745 6.13297 6.32939C6.14109 6.51101 6.13523 6.69359 6.13523 6.87569C6.13523 8.80058 6.13523 10.725 6.13523 12.6499C6.13523 12.7286 6.13748 12.8092 6.12305 12.8854C6.06759 13.1792 5.81237 13.3792 5.54092 13.3496C5.2636 13.319 5.05708 13.0704 5.05618 12.7509C5.05347 11.804 5.05528 10.8566 5.05528 9.90968C5.05528 9.79411 5.05528 9.67902 5.05528 9.56345Z" fill="#08A5E3"/>
<path d="M8.66166 9.55607C8.66166 10.6186 8.66287 11.6812 8.66046 12.7438C8.65986 13.0303 8.46899 13.2425 8.15349 13.3241C7.85906 13.4004 7.5291 13.3217 7.36111 13.1051C7.28164 13.0026 7.22504 12.8691 7.22504 12.7491C7.21721 10.624 7.21781 8.49884 7.22082 6.3737C7.22082 6.03036 7.53332 5.77588 7.93612 5.77442C8.34616 5.77248 8.65925 6.03181 8.66046 6.38584C8.66347 7.44259 8.66166 8.49884 8.66166 9.55559V9.55607Z" fill="#08A5E3"/>
</svg>
